…
```r
dat %>% filter(!is.na(SalePrice)) %>%
  group_by(Neighborhood) %>% summarise(count = n(),
                                       mean = mean(SalePrice),
                                       median = median(SalePrice),
                                       sd = sd(SalePrice))
```

```
## # A tibble: 25 x 5
##    Neighborhood count    mean median     sd
##    <fct>        <int>   <dbl>  <dbl>  <dbl>
##  1 Blmngtn         17 194871. 191000 30393.
##  2 Blueste          2 137500  137500 19092.
##  3 BrDale          16 104494. 106000 14330.
##  4 BrkSide         58 124834. 124300 40349.
##  5 ClearCr         28 212565. 200250 50232.
##  6 CollgCr        150 197966. 197200 51404.
##  7 Crawfor         51 210625. 200624 68866.
##  8 Edwards        100 128220. 121750 43209.
##  9 Gilbert         79 192855. 181000 35987.
## 10 IDOTRR          37 100124. 103000 33377.
## #  with 15 more rows
```
…
```r
dat %>% filter(is.na(SalePrice)) %>% group_by(Neighborhood) %>% tally()
```

```
## # A tibble: 25 x 2
##    Neighborhood     n
##    <fct>        <int>
##  1 Blmngtn         11
##  2 Blueste          8
##  3 BrDale          14
##  4 BrkSide         50
##  5 ClearCr         16
##  6 CollgCr        117
##  7 Crawfor         52
##  8 Edwards         94
##  9 Gilbert         86
## 10 IDOTRR          56
## #  with 15 more rows
```

```r
dat %>% filter(!is.na(SalePrice)) %>% group_by(Neighborhood) %>% tally()
```

```
## # A tibble: 25 x 2
##    Neighborhood     n
##    <fct>        <int>
##  1 Blmngtn         17
##  2 Blueste          2
##  3 BrDale          16
##  4 BrkSide         58
##  5 ClearCr         28
##  6 CollgCr        150
##  7 Crawfor         51
##  8 Edwards        100
##  9 Gilbert         79
## 10 IDOTRR          37
## #  with 15 more rows
```
…
